waveforms/tb_cpu.vcd
$date
	Sun May 12 00:18:42 2024
$end
$version
	Icarus Verilog
$end
$timescale
	1ps
$end
$scope module tb_cpu $end
$var event 1 ! testbench_finish $end
$var wire 16 " data [15:0] $end
$var wire 1 # writeM $end
$var wire 1 $ readM $end
$var wire 16 % output_port [15:0] $end
$var wire 16 & num_inst [15:0] $end
$var wire 1 ' is_halted $end
$var wire 1 ( inputReady $end
$var wire 16 ) address [15:0] $end
$var reg 16 * Passed [15:0] $end
$var reg 1 + clk $end
$var reg 16 , i [15:0] $end
$var reg 16 - num_clock [15:0] $end
$var reg 1 . reset_n $end
$scope module Mem $end
$var wire 16 / data [15:0] $end
$var wire 1 # writeM $end
$var wire 1 $ readM $end
$var wire 16 0 address [15:0] $end
$var reg 1 ( inputReady $end
$var reg 16 1 outputData [15:0] $end
$upscope $end
$scope module UUT $end
$var wire 1 + clk $end
$var wire 16 2 data [15:0] $end
$var wire 1 ( inputReady $end
$var wire 1 ' is_halted $end
$var wire 1 . reset_n $end
$var wire 1 # writeM $end
$var wire 1 $ readM $end
$var wire 16 3 output_port [15:0] $end
$var wire 4 4 opcode [3:0] $end
$var wire 16 5 num_inst [15:0] $end
$var wire 1 6 isWWD $end
$var wire 1 7 isHalted $end
$var wire 6 8 func_code [5:0] $end
$var wire 1 9 done $end
$var wire 16 : address [15:0] $end
$var wire 1 ; RegWrite $end
$var wire 2 < RegDst [1:0] $end
$var wire 1 = PCWriteCond $end
$var wire 1 > PCWrite $end
$var wire 2 ? PCSource [1:0] $end
$var wire 2 @ MemtoReg [1:0] $end
$var wire 1 A IorD $end
$var wire 1 B IRWrite $end
$var wire 2 C ALUSrcB [1:0] $end
$var wire 1 D ALUSrcA $end
$var wire 16 E ALUResult [15:0] $end
$var wire 4 F ALUOp [3:0] $end
$scope module control $end
$var wire 4 G ALUOp [3:0] $end
$var wire 1 D ALUSrcA $end
$var wire 2 H ALUSrcB [1:0] $end
$var wire 1 B IRWrite $end
$var wire 1 A IorD $end
$var wire 1 I Is_Itype $end
$var wire 1 J Is_Jtype $end
$var wire 2 K MemtoReg [1:0] $end
$var wire 2 L RegDst [1:0] $end
$var wire 1 ; RegWrite $end
$var wire 1 + clk $end
$var wire 1 9 done $end
$var wire 1 M inputReady $end
$var wire 1 6 isWWD $end
$var wire 1 . reset_n $end
$var wire 4 N opcode [3:0] $end
$var wire 1 7 isHalted $end
$var wire 6 O func_code [5:0] $end
$var wire 1 = PCWriteCond $end
$var wire 1 > PCWrite $end
$var wire 2 P PCSource [1:0] $end
$var wire 1 # MemWrite $end
$var wire 1 $ MemRead $end
$var wire 16 Q ALUResult [15:0] $end
$var reg 4 R ALUOp_reg [3:0] $end
$var reg 1 S ALUSrcA_reg $end
$var reg 2 T ALUSrcB_reg [1:0] $end
$var reg 1 U IRWrite_reg $end
$var reg 1 V IorD_reg $end
$var reg 1 $ MemRead_reg $end
$var reg 1 # MemWrite_reg $end
$var reg 2 W MemtoReg_reg [1:0] $end
$var reg 2 X PCSource_reg [1:0] $end
$var reg 1 = PCWriteCond_reg $end
$var reg 1 > PCWrite_reg $end
$var reg 2 Y RegDst_reg [1:0] $end
$var reg 1 Z RegWrite_reg $end
$var reg 1 [ done_reg $end
$var reg 1 7 isHalted_reg $end
$var reg 1 \ isWWD_reg $end
$var reg 3 ] nstate [2:0] $end
$var reg 3 ^ state [2:0] $end
$upscope $end
$scope module datapath $end
$var wire 4 _ ALUOp [3:0] $end
$var wire 1 D ALUSrcA $end
$var wire 2 ` ALUSrcB [1:0] $end
$var wire 16 a ALUinA [15:0] $end
$var wire 16 b ALUinB [15:0] $end
$var wire 1 B IRWrite $end
$var wire 1 A IorD $end
$var wire 1 $ MemRead $end
$var wire 1 # MemWrite $end
$var wire 2 c MemtoReg [1:0] $end
$var wire 2 d PCSource [1:0] $end
$var wire 1 > PCWrite $end
$var wire 1 = PCWriteCond $end
$var wire 2 e RegDst [1:0] $end
$var wire 1 ; RegWrite $end
$var wire 16 f address [15:0] $end
$var wire 1 + clk $end
$var wire 16 g data [15:0] $end
$var wire 1 9 done $end
$var wire 1 ( inputReady $end
$var wire 1 7 isHalted $end
$var wire 1 6 isWWD $end
$var wire 16 h num_inst [15:0] $end
$var wire 16 i output_port [15:0] $end
$var wire 2 j read_rf_Addr1 [1:0] $end
$var wire 2 k read_rf_Addr2 [1:0] $end
$var wire 1 . reset_n $end
$var wire 2 l write_rf_Addr [1:0] $end
$var wire 16 m write_rf_data [15:0] $end
$var wire 2 n rt [1:0] $end
$var wire 2 o rs [1:0] $end
$var wire 16 p read_rf_data2 [15:0] $end
$var wire 16 q read_rf_data1 [15:0] $end
$var wire 2 r rd [1:0] $end
$var wire 16 s pc_selected [15:0] $end
$var wire 4 t opcode [3:0] $end
$var wire 12 u jmp_target [11:0] $end
$var wire 8 v imm [7:0] $end
$var wire 6 w func_code [5:0] $end
$var wire 1 x branch_true $end
$var wire 16 y ALUResult [15:0] $end
$var reg 16 z ALUinA_reg [15:0] $end
$var reg 16 { ALUinB_reg [15:0] $end
$var reg 16 | ALUout [15:0] $end
$var reg 16 } IR [15:0] $end
$var reg 16 ~ MDR [15:0] $end
$var reg 16 !" address_reg [15:0] $end
$var reg 16 "" num_inst_reg [15:0] $end
$var reg 16 #" output_port_reg [15:0] $end
$var reg 16 $" pc [15:0] $end
$var reg 16 %" reg_A [15:0] $end
$var reg 16 &" reg_B [15:0] $end
$var reg 2 '" write_rf_Addr_reg [1:0] $end
$var reg 16 (" write_rf_data_reg [15:0] $end
$scope module ALU $end
$var wire 16 )" A [15:0] $end
$var wire 16 *" B [15:0] $end
$var wire 4 +" OP [3:0] $end
$var reg 16 ," C [15:0] $end
$var reg 1 -" Cout $end
$upscope $end
$scope module RF $end
$var wire 2 ." addr1 [1:0] $end
$var wire 2 /" addr2 [1:0] $end
$var wire 2 0" addr3 [1:0] $end
$var wire 1 + clk $end
$var wire 16 1" data1 [15:0] $end
$var wire 16 2" data2 [15:0] $end
$var wire 16 3" data3 [15:0] $end
$var wire 1 . reset_n $end
$var wire 1 ; write $end
$upscope $end
$upscope $end
$upscope $end
$upscope $end
$scope module tb_cpu $end
$scope module Mem $end
$upscope $end
$scope module UUT $end
$scope module control $end
$upscope $end
$scope module datapath $end
$scope module ALU $end
$upscope $end
$scope module RF $end
$upscope $end
$upscope $end
$upscope $end
$upscope $end
$enddefinitions $end
#0
$dumpvars
bx 3"
bx 2"
bx 1"
bx 0"
bx /"
bx ."
x-"
bx ,"
bx +"
bx *"
bx )"
bx ("
bx '"
bx &"
bx %"
bx $"
bx #"
bx ""
bx !"
bx ~
bx }
bx |
bx {
bx z
bx y
xx
bx w
bx v
bx u
bx t
bx s
bx r
bx q
bx p
bx o
bx n
bx m
bx l
bx k
bx j
bx i
bx h
bx g
bx f
bx e
bx d
bx c
bx b
bx a
bx `
bx _
bx ^
bx ]
x\
x[
xZ
bx Y
bx X
bx W
xV
xU
bx T
xS
bx R
bx Q
bx P
bx O
bx N
zM
bx L
bx K
xJ
xI
bx H
bx G
bx F
bx E
xD
bx C
xB
xA
bx @
bx ?
x>
x=
bx <
x;
bx :
x9
bx 8
x7
x6
bx 5
bx 4
bx 3
bx 2
bz 1
bx 0
bx /
1.
bx -
bx ,
0+
b0 *
bx )
0(
x'
bx &
bx %
x$
x#
bx "
1!
$end
#25000
0J
1I
bz "
bz /
bz 2
bz g
b0 4
b0 N
b0 t
b0 q
b0 1"
b0 j
b0 ."
b0 o
b0 p
b0 2"
b0 k
b0 /"
b0 n
b0 r
b0 8
b0 O
b0 w
b0 v
b0 u
0#
0$
b0 ]
b0 ^
b0 |
b0 &"
b0 %"
b0 ~
b0 }
b0 $"
b0 &
b0 5
b0 h
b0 ""
b0 )
b0 0
b0 :
b0 f
b0 !"
0.
#50000
b0 -
1+
#100000
0+
#125000
1.
#150000
b1 s
1x
0-"
b1 E
b1 Q
b1 y
b1 ,"
b1 b
b1 *"
b1 {
b0 a
b0 )"
b0 z
09
0[
b1 ]
06
0\
0'
07
0;
0Z
b1 C
b1 H
b1 `
b1 T
0D
0S
b0 F
b0 G
b0 _
b0 +"
b0 R
b0 ?
b0 P
b0 X
b0 d
1B
1U
1$
0A
0V
1>
0=
b111010 ,
b1 -
bx |
1+
#180000
1J
0I
b1001 4
b1001 N
b1001 t
b100011 8
b100011 O
b100011 w
b100011 v
b100011 u
b1001000000100011 }
b1001000000100011 ~
b1001000000100011 "
b1001000000100011 /
b1001000000100011 2
b1001000000100011 g
1(
b1001000000100011 1
#200000
0+
#250000
b1 &
b1 5
b1 h
b1 ""
bz "
bz /
bz 2
bz g
0(
bz 1
b1 ^
19
1[
b0 ]
b10 ?
b10 P
b10 X
b10 d
0B
0U
0$
b100011 s
b10 E
b10 Q
b10 y
b10 ,"
b1 a
b1 )"
b1 z
b1 )
b1 0
b1 :
b1 f
b1 !"
b1 |
b1 $"
b111010 ,
b10 -
1+
#300000
0+
#350000
b100100 s
09
0[
b1 ]
b0 ?
b0 P
b0 X
b0 d
1B
1U
1$
b0 ^
b100100 E
b100100 Q
b100100 y
b100100 ,"
b100011 a
b100011 )"
b100011 z
b100011 )
b100011 0
b100011 :
b100011 f
b100011 !"
b111010 ,
b11 -
b100011 $"
b10 |
1+
#380000
0J
1I
b110 4
b110 N
b110 t
b0 8
b0 O
b0 w
b0 v
b0 u
b110000000000000 }
b110000000000000 ~
b110000000000000 "
b110000000000000 /
b110000000000000 2
b110000000000000 g
1(
b110000000000000 1
#400000
0+
#450000
0x
b0 l
b0 0"
b0 '"
bz "
bz /
bz 2
bz g
0(
bz 1
b1 ^
b10 ]
b0 <
b0 L
b0 e
b0 Y
0>
0B
0U
0$
b100101 s
b100101 E
b100101 Q
b100101 y
b100101 ,"
b100100 a
b100100 )"
b100100 z
b100100 )
b100100 0
b100100 :
b100100 f
b100100 !"
b100100 |
b100100 $"
b111010 ,
b100 -
1+
#500000
0+
#550000
b0 E
b0 Q
b0 y
b0 ,"
b0 b
b0 *"
b0 {
b0 a
b0 )"
b0 z
b1001 F
b1001 G
b1001 _
b1001 +"
b1001 R
b100 ]
b10 C
b10 H
b10 `
b10 T
1D
1S
b1 ?
b1 P
b1 X
b1 d
b10 ^
b111010 ,
b101 -
b100101 |
1+
#600000
0+
#650000
b10 &
b10 5
b10 h
b10 ""
b0 m
b0 3"
b0 ("
b100 ^
b0 @
b0 K
b0 c
b0 W
b0 ]
19
1[
1;
1Z
b0 s
b0 |
b111010 ,
b110 -
1+
#700000
0+
#750000
b100101 s
1x
b100101 E
b100101 Q
b100101 y
b100101 ,"
b1 b
b1 *"
b1 {
b100100 a
b100100 )"
b100100 z
09
0[
b1 ]
0;
0Z
b1 C
b1 H
b1 `
b1 T
0D
0S
b0 F
b0 G
b0 _
b0 +"
b0 R
b0 ?
b0 P
b0 X
b0 d
1B
1U
1$
1>
b0 ^
b111010 ,
b111 -
1+
#780000
0I
b1111 4
b1111 N
b1111 t
b11100 8
b11100 O
b11100 w
b11100 v
b11100 u
b1111000000011100 }
b1111000000011100 ~
b1111000000011100 "
b1111000000011100 /
b1111000000011100 2
b1111000000011100 g
1(
b1111000000011100 1
#800000
0+
#850000
b11 &
b11 5
b11 h
b11 ""
0x
b0 %
b0 3
b0 i
b0 #"
bz "
bz /
bz 2
bz g
0(
bz 1
b1 ^
19
1[
b0 ]
16
1\
0>
0B
0U
0$
b100110 s
b100110 E
b100110 Q
b100110 y
b100110 ,"
b100101 a
b100101 )"
b100101 z
b100101 m
b100101 3"
b100101 ("
b100101 )
b100101 0
b100101 :
b100101 f
b100101 !"
b100101 |
b100101 $"
b111010 ,
b1000 -
1+
#900000
0+
#950000
1x
09
0[
b1 ]
06
0\
1B
1U
1$
1>
b0 ^
b100110 m
b100110 3"
b100110 ("
b111010 ,
b1001 -
b100110 |
1+
#980000
1I
b1 l
b1 0"
b1 '"
b110 4
b110 N
b110 t
b1 k
b1 /"
b1 n
b0 8
b0 O
b0 w
b0 v
b100000000 u
b110000100000000 }
b110000100000000 ~
b110000100000000 "
b110000100000000 /
b110000100000000 2
b110000100000000 g
1(
b110000100000000 1
#1000000
0+
#1050000
0x
bz "
bz /
bz 2
bz g
0(
bz 1
b1 ^
b10 ]
0>
0B
0U
0$
b100111 s
b100111 E
b100111 Q
b100111 y
b100111 ,"
b100110 a
b100110 )"
b100110 z
b100110 )
b100110 0
b100110 :
b100110 f
b100110 !"
b100110 $"
b111010 ,
b1010 -
1+
#1100000
0+
#1150000
b0 E
b0 Q
b0 y
b0 ,"
b0 b
b0 *"
b0 {
b0 a
b0 )"
b0 z
b1001 F
b1001 G
b1001 _
b1001 +"
b1001 R
b100 ]
b10 C
b10 H
b10 `
b10 T
1D
1S
b1 ?
b1 P
b1 X
b1 d
b10 ^
b100111 m
b100111 3"
b100111 ("
b111010 ,
b1011 -
b100111 |
1+
#1200000
0+
#1250000
b100 &
b100 5
b100 h
b100 ""
b100 ^
b0 ]
19
1[
1;
1Z
b0 s
b0 m
b0 3"
b0 ("
b0 |
b111010 ,
b1100 -
1+
#1300000
0+
#1350000
b100111 s
1x
b100111 E
b100111 Q
b100111 y
b100111 ,"
b1 b
b1 *"
b1 {
b100110 a
b100110 )"
b100110 z
09
0[
b1 ]
0;
0Z
b1 C
b1 H
b1 `
b1 T
0D
0S
b0 F
b0 G
b0 _
b0 +"
b0 R
b0 ?
b0 P
b0 X
b0 d
1B
1U
1$
1>
b0 ^
b111010 ,
b1101 -
1+
#1380000
0I
b0 l
b0 0"
b0 '"
b1111 4
b1111 N
b1111 t
b1 j
b1 ."
b1 o
b0 k
b0 /"
b0 n
b11100 8
b11100 O
b11100 w
b11100 v
b10000011100 u
b1111010000011100 }
b1111010000011100 ~
b1111010000011100 "
b1111010000011100 /
b1111010000011100 2
b1111010000011100 g
1(
b1111010000011100 1
#1400000
0+
#1450000
b101 &
b101 5
b101 h
b101 ""
0x
bz "
bz /
bz 2
bz g
0(
bz 1
b1 ^
19
1[
b0 ]
16
1\
0>
0B
0U
0$
b101000 s
b101000 E
b101000 Q
b101000 y
b101000 ,"
b100111 a
b100111 )"
b100111 z
b100111 m
b100111 3"
b100111 ("
b100111 )
b100111 0
b100111 :
b100111 f
b100111 !"
b100111 |
b100111 $"
b111010 ,
b1110 -
1+
#1500000
0+
#1550000
1x
09
0[
b1 ]
06
0\
1B
1U
1$
1>
b0 ^
b101000 m
b101000 3"
b101000 ("
b111010 ,
b1111 -
b101000 |
1+
#1580000
1I
b10 l
b10 0"
b10 '"
b110 4
b110 N
b110 t
b0 j
b0 ."
b0 o
b10 k
b10 /"
b10 n
b0 8
b0 O
b0 w
b0 v
b1000000000 u
b110001000000000 }
b110001000000000 ~
b110001000000000 "
b110001000000000 /
b110001000000000 2
b110001000000000 g
1(
b110001000000000 1
#1600000
0+
#1650000
0x
bz "
bz /
bz 2
bz g
0(
bz 1
b1 ^
b10 ]
0>
0B
0U
0$
b101001 s
b101001 E
b101001 Q
b101001 y
b101001 ,"
b101000 a
b101000 )"
b101000 z
b101000 )
b101000 0
b101000 :
b101000 f
b101000 !"
b101000 $"
b111010 ,
b10000 -
1+
#1700000
0+
#1750000
b0 E
b0 Q
b0 y
b0 ,"
b0 b
b0 *"
b0 {
b0 a
b0 )"
b0 z
b1001 F
b1001 G
b1001 _
b1001 +"
b1001 R
b100 ]
b10 C
b10 H
b10 `
b10 T
1D
1S
b1 ?
b1 P
b1 X
b1 d
b10 ^
b101001 m
b101001 3"
b101001 ("
b111010 ,
b10001 -
b101001 |
1+
#1800000
0+
#1850000
b110 &
b110 5
b110 h
b110 ""
b100 ^
b0 ]
19
1[
1;
1Z
b0 s
b0 m
b0 3"
b0 ("
b0 |
b111010 ,
b10010 -
1+
#1900000
0+
#1950000
b101001 s
1x
b101001 E
b101001 Q
b101001 y
b101001 ,"
b1 b
b1 *"
b1 {
b101000 a
b101000 )"
b101000 z
09
0[
b1 ]
0;
0Z
b1 C
b1 H
b1 `
b1 T
0D
0S
b0 F
b0 G
b0 _
b0 +"
b0 R
b0 ?
b0 P
b0 X
b0 d
1B
1U
1$
1>
b0 ^
b111010 ,
b10011 -
1+
#1980000
0I
b0 l
b0 0"
b0 '"
b1111 4
b1111 N
b1111 t
b10 j
b10 ."
b10 o
b0 k
b0 /"
b0 n
b11100 8
b11100 O
b11100 w
b11100 v
b100000011100 u
b1111100000011100 }
b1111100000011100 ~
b1111100000011100 "
b1111100000011100 /
b1111100000011100 2
b1111100000011100 g
1(
b1111100000011100 1
#2000000
0+
#2050000
b111 &
b111 5
b111 h
b111 ""
0x
bz "
bz /
bz 2
bz g
0(
bz 1
b1 ^
19
1[
b0 ]
16
1\
0>
0B
0U
0$
b101010 s
b101010 E
b101010 Q
b101010 y
b101010 ,"
b101001 a
b101001 )"
b101001 z
b101001 m
b101001 3"
b101001 ("
b101001 )
b101001 0
b101001 :
b101001 f
b101001 !"
b101001 |
b101001 $"
b111010 ,
b10100 -
1+
#2100000
0+
#2150000
1x
09
0[
b1 ]
06
0\
1B
1U
1$
1>
b0 ^
b101010 m
b101010 3"
b101010 ("
b111010 ,
b10101 -
b101010 |
1+
#2180000
1I
b11 l
b11 0"
b11 '"
b110 4
b110 N
b110 t
b0 j
b0 ."
b0 o
b11 k
b11 /"
b11 n
b0 8
b0 O
b0 w
b0 v
b1100000000 u
b110001100000000 }
b110001100000000 ~
b110001100000000 "
b110001100000000 /
b110001100000000 2
b110001100000000 g
1(
b110001100000000 1
#2200000
0+
#2250000
0x
bz "
bz /
bz 2
bz g
0(
bz 1
b1 ^
b10 ]
0>
0B
0U
0$
b101011 s
b101011 E
b101011 Q
b101011 y
b101011 ,"
b101010 a
b101010 )"
b101010 z
b101010 )
b101010 0
b101010 :
b101010 f
b101010 !"
b101010 $"
b111010 ,
b10110 -
1+
#2300000
0+
#2350000
b0 E
b0 Q
b0 y
b0 ,"
b0 b
b0 *"
b0 {
b0 a
b0 )"
b0 z
b1001 F
b1001 G
b1001 _
b1001 +"
b1001 R
b100 ]
b10 C
b10 H
b10 `
b10 T
1D
1S
b1 ?
b1 P
b1 X
b1 d
b10 ^
b101011 m
b101011 3"
b101011 ("
b111010 ,
b10111 -
b101011 |
1+
#2400000
0+
#2450000
b1000 &
b1000 5
b1000 h
b1000 ""
b100 ^
b0 ]
19
1[
1;
1Z
b0 s
b0 m
b0 3"
b0 ("
b0 |
b111010 ,
b11000 -
1+
#2500000
0+
#2550000
b101011 s
1x
b101011 E
b101011 Q
b101011 y
b101011 ,"
b1 b
b1 *"
b1 {
b101010 a
b101010 )"
b101010 z
09
0[
b1 ]
0;
0Z
b1 C
b1 H
b1 `
b1 T
0D
0S
b0 F
b0 G
b0 _
b0 +"
b0 R
b0 ?
b0 P
b0 X
b0 d
1B
1U
1$
1>
b0 ^
b111010 ,
b11001 -
1+
#2580000
0I
b0 l
b0 0"
b0 '"
b1111 4
b1111 N
b1111 t
b11 j
b11 ."
b11 o
b0 k
b0 /"
b0 n
b11100 8
b11100 O
b11100 w
b11100 v
b110000011100 u
b1111110000011100 }
b1111110000011100 ~
b1111110000011100 "
b1111110000011100 /
b1111110000011100 2
b1111110000011100 g
1(
b1111110000011100 1
#2600000
0+
#2650000
b1001 &
b1001 5
b1001 h
b1001 ""
0x
bz "
bz /
bz 2
bz g
0(
bz 1
b1 ^
19
1[
b0 ]
16
1\
0>
0B
0U
0$
b101100 s
b101100 E
b101100 Q
b101100 y
b101100 ,"
b101011 a
b101011 )"
b101011 z
b101011 m
b101011 3"
b101011 ("
b101011 )
b101011 0
b101011 :
b101011 f
b101011 !"
b101011 |
b101011 $"
b111010 ,
b11010 -
1+
#2700000
0+
#2750000
1x
09
0[
b1 ]
06
0\
1B
1U
1$
1>
b0 ^
b101100 m
b101100 3"
b101100 ("
b111010 ,
b11011 -
b101100 |
1+
#2780000
1I
b100 4
b100 N
b100 t
b1 j
b1 ."
b1 o
b1 8
b1 O
b1 w
b1 v
b10000000001 u
b100010000000001 }
b100010000000001 ~
b100010000000001 "
b100010000000001 /
b100010000000001 2
b100010000000001 g
1(
b100010000000001 1
#2800000
0+
#2850000
0x
bz "
bz /
bz 2
bz g
0(
bz 1
b1 ^
b10 ]
0>
0B
0U
0$
b101101 s
b101101 E
b101101 Q
b101101 y
b101101 ,"
b101100 a
b101100 )"
b101100 z
b101100 )
b101100 0
b101100 :
b101100 f
b101100 !"
b101100 $"
b111010 ,
b11100 -
1+
#2900000
0+
#2950000
b1 E
b1 Q
b1 y
b1 ,"
b0 a
b0 )"
b0 z
b100 ]
b10 C
b10 H
b10 `
b10 T
1D
1S
b1 ?
b1 P
b1 X
b1 d
b10 ^
b101101 m
b101101 3"
b101101 ("
b111010 ,
b11101 -
b101101 |
1+
#3000000
0+
#3050000
b1010 &
b1010 5
b1010 h
b1010 ""
b100 ^
b0 ]
19
1[
1;
1Z
b1 s
b1 m
b1 3"
b1 ("
b1 |
b111010 ,
b11110 -
1+
#3100000
0+
#3150000
b101101 s
1x
b101101 E
b101101 Q
b101101 y
b101101 ,"
b101100 a
b101100 )"
b101100 z
b1 p
b1 2"
09
0[
b1 ]
0;
0Z
b1 C
b1 H
b1 `
b1 T
0D
0S
b0 ?
b0 P
b0 X
b0 d
1B
1U
1$
1>
b0 ^
b111010 ,
b11111 -
1+
#3180000
0I
b1111 4
b1111 N
b1111 t
b1 q
b1 1"
b0 j
b0 ."
b0 o
b11100 8
b11100 O
b11100 w
b11100 v
b11100 u
b1111000000011100 }
b1111000000011100 ~
b1111000000011100 "
b1111000000011100 /
b1111000000011100 2
b1111000000011100 g
1(
b1111000000011100 1
#3200000
0+
#3250000
b1011 &
b1011 5
b1011 h
b1011 ""
0x
b1 %
b1 3
b1 i
b1 #"
bz "
bz /
bz 2
bz g
0(
bz 1
b1 ^
19
1[
b0 ]
16
1\
0>
0B
0U
0$
b101110 s
b101110 E
b101110 Q
b101110 y
b101110 ,"
b101101 a
b101101 )"
b101101 z
b101101 m
b101101 3"
b101101 ("
b101101 )
b101101 0
b101101 :
b101101 f
b101101 !"
b101101 |
b1 &"
b1 %"
b101101 $"
b111010 ,
b100000 -
1+
#3300000
0+
#3350000
1x
09
0[
b1 ]
06
0\
1B
1U
1$
1>
b0 ^
b101110 m
b101110 3"
b101110 ("
b111010 ,
b100001 -
b101110 |
1+
#3380000
1I
b100 4
b100 N
b100 t
b1 8
b1 O
b1 w
b1 v
b1 u
b100000000000001 }
b100000000000001 ~
b100000000000001 "
b100000000000001 /
b100000000000001 2
b100000000000001 g
1(
b100000000000001 1
#3400000
0+
#3450000
0x
bz "
bz /
bz 2
bz g
0(
bz 1
b1 ^
b10 ]
0>
0B
0U
0$
b101111 s
b101111 E
b101111 Q
b101111 y
b101111 ,"
b101110 a
b101110 )"
b101110 z
b101110 )
b101110 0
b101110 :
b101110 f
b101110 !"
b101110 $"
b111010 ,
b100010 -
1+
#3500000
0+
#3550000
b10 E
b10 Q
b10 y
b10 ,"
b1 a
b1 )"
b1 z
b100 ]
b10 C
b10 H
b10 `
b10 T
1D
1S
b1 ?
b1 P
b1 X
b1 d
b10 ^
b101111 m
b101111 3"
b101111 ("
b111010 ,
b100011 -
b101111 |
1+
#3600000
0+
#3650000
b1100 &
b1100 5
b1100 h
b1100 ""
b100 ^
b0 ]
19
1[
1;
1Z
b10 s
b10 m
b10 3"
b10 ("
b10 |
b111010 ,
b100100 -
1+
#3700000
0+
#3750000
b101111 s
1x
b101111 E
b101111 Q
b101111 y
b101111 ,"
b101110 a
b101110 )"
b101110 z
b10 q
b10 1"
b10 p
b10 2"
09
0[
b1 ]
0;
0Z
b1 C
b1 H
b1 `
b1 T
0D
0S
b0 ?
b0 P
b0 X
b0 d
1B
1U
1$
1>
b0 ^
b111010 ,
b100101 -
1+
#3780000
0I
b1111 4
b1111 N
b1111 t
b11100 8
b11100 O
b11100 w
b11100 v
b11100 u
b1111000000011100 }
b1111000000011100 ~
b1111000000011100 "
b1111000000011100 /
b1111000000011100 2
b1111000000011100 g
1(
b1111000000011100 1
#3800000
0+
#3850000
b1101 &
b1101 5
b1101 h
b1101 ""
0x
b10 %
b10 3
b10 i
b10 #"
bz "
bz /
bz 2
bz g
0(
bz 1
b1 ^
19
1[
b0 ]
16
1\
0>
0B
0U
0$
b110000 s
b110000 E
b110000 Q
b110000 y
b110000 ,"
b101111 a
b101111 )"
b101111 z
b101111 m
b101111 3"
b101111 ("
b101111 )
b101111 0
b101111 :
b101111 f
b101111 !"
b101111 |
b10 &"
b10 %"
b101111 $"
b111010 ,
b100110 -
1+
#3900000
0+
#3950000
1x
09
0[
b1 ]
06
0\
1B
1U
1$
1>
b0 ^
b110000 m
b110000 3"
b110000 ("
b111010 ,
b100111 -
b110000 |
1+
#3980000
1I
b1 l
b1 0"
b1 '"
b101 4
b101 N
b101 t
b0 q
b0 1"
b10 j
b10 ."
b10 o
b0 p
b0 2"
b1 k
b1 /"
b1 n
b1 8
b1 O
b1 w
b1 v
b100100000001 u
b101100100000001 }
b101100100000001 ~
b101100100000001 "
b101100100000001 /
b101100100000001 2
b101100100000001 g
1(
b101100100000001 1
#4000000
0+
#4050000
0x
bz "
bz /
bz 2
bz g
0(
bz 1
b1 ^
b10 ]
0>
0B
0U
0$
b110001 s
b110001 E
b110001 Q
b110001 y
b110001 ,"
b110000 a
b110000 )"
b110000 z
b110000 )
b110000 0
b110000 :
b110000 f
b110000 !"
b0 &"
b0 %"
b110000 $"
b111010 ,
b101000 -
1+
#4100000
0+
#4150000
b1 E
b1 Q
b1 y
b1 ,"
b0 a
b0 )"
b0 z
b1000 F
b1000 G
b1000 _
b1000 +"
b1000 R
b100 ]
b10 C
b10 H
b10 `
b10 T
1D
1S
b1 ?
b1 P
b1 X
b1 d
b10 ^
b110001 m
b110001 3"
b110001 ("
b111010 ,
b101001 -
b110001 |
1+
#4200000
0+
#4250000
b1110 &
b1110 5
b1110 h
b1110 ""
b100 ^
b0 ]
19
1[
1;
1Z
b1 s
b1 m
b1 3"
b1 ("
b1 |
b111010 ,
b101010 -
1+
#4300000
0+
#4350000
b110001 s
1x
b110001 E
b110001 Q
b110001 y
b110001 ,"
b110000 a
b110000 )"
b110000 z
b1 p
b1 2"
09
0[
b1 ]
0;
0Z
b1 C
b1 H
b1 `
b1 T
0D
0S
b0 F
b0 G
b0 _
b0 +"
b0 R
b0 ?
b0 P
b0 X
b0 d
1B
1U
1$
1>
b0 ^
b111010 ,
b101011 -
1+
#4380000
0I
b0 l
b0 0"
b0 '"
b1111 4
b1111 N
b1111 t
b1 q
b1 1"
b1 j
b1 ."
b1 o
b10 p
b10 2"
b0 k
b0 /"
b0 n
b11100 8
b11100 O
b11100 w
b11100 v
b10000011100 u
b1111010000011100 }
b1111010000011100 ~
b1111010000011100 "
b1111010000011100 /
b1111010000011100 2
b1111010000011100 g
1(
b1111010000011100 1
#4400000
0+
#4450000
b1111 &
b1111 5
b1111 h
b1111 ""
0x
b1 %
b1 3
b1 i
b1 #"
bz "
bz /
bz 2
bz g
0(
bz 1
b1 ^
19
1[
b0 ]
16
1\
0>
0B
0U
0$
b110010 s
b110010 E
b110010 Q
b110010 y
b110010 ,"
b110001 a
b110001 )"
b110001 z
b110001 m
b110001 3"
b110001 ("
b110001 )
b110001 0
b110001 :
b110001 f
b110001 !"
b110001 |
b10 &"
b1 %"
b110001 $"
b111010 ,
b101100 -
1+
#4500000
0+
#4550000
1x
09
0[
b1 ]
06
0\
1B
1U
1$
1>
b0 ^
b110010 m
b110010 3"
b110010 ("
b111010 ,
b101101 -
b110010 |
1+
#4580000
1I
b1 l
b1 0"
b1 '"
b101 4
b101 N
b101 t
b1 p
b1 2"
b1 k
b1 /"
b1 n
b10 8
b10 O
b10 w
b10 v
b10100000010 u
b101010100000010 }
b101010100000010 ~
b101010100000010 "
b101010100000010 /
b101010100000010 2
b101010100000010 g
1(
b101010100000010 1
#4600000
0+
#4650000
0x
bz "
bz /
bz 2
bz g
0(
bz 1
b1 ^
b10 ]
0>
0B
0U
0$
b110011 s
b110011 E
b110011 Q
b110011 y
b110011 ,"
b110010 a
b110010 )"
b110010 z
b110010 )
b110010 0
b110010 :
b110010 f
b110010 !"
b1 &"
b110010 $"
b111010 ,
b101110 -
1+
#4700000
0+
#4750000
b11 E
b11 Q
b11 y
b11 ,"
b10 b
b10 *"
b10 {
b1 a
b1 )"
b1 z
b1000 F
b1000 G
b1000 _
b1000 +"
b1000 R
b100 ]
b10 C
b10 H
b10 `
b10 T
1D
1S
b1 ?
b1 P
b1 X
b1 d
b10 ^
b110011 m
b110011 3"
b110011 ("
b111010 ,
b101111 -
b110011 |
1+
#4800000
0+
#4850000
b10000 &
b10000 5
b10000 h
b10000 ""
b100 ^
b0 ]
19
1[
1;
1Z
b11 s
b11 m
b11 3"
b11 ("
b11 |
b111010 ,
b110000 -
1+
#4900000
0+
#4950000
b110011 s
1x
b110011 E
b110011 Q
b110011 y
b110011 ,"
b1 b
b1 *"
b1 {
b110010 a
b110010 )"
b110010 z
b11 q
b11 1"
b11 p
b11 2"
09
0[
b1 ]
0;
0Z
b1 C
b1 H
b1 `
b1 T
0D
0S
b0 F
b0 G
b0 _
b0 +"
b0 R
b0 ?
b0 P
b0 X
b0 d
1B
1U
1$
1>
b0 ^
b111010 ,
b110001 -
1+
#4980000
0I
b0 l
b0 0"
b0 '"
b1111 4
b1111 N
b1111 t
b10 p
b10 2"
b0 k
b0 /"
b0 n
b11100 8
b11100 O
b11100 w
b11100 v
b10000011100 u
b1111010000011100 }
b1111010000011100 ~
b1111010000011100 "
b1111010000011100 /
b1111010000011100 2
b1111010000011100 g
1(
b1111010000011100 1
#5000000
0+
